{
  "required": true,
  "package": "com.biom4st3r.moenchantments.mixin",
  "compatibilityLevel": "JAVA_8",
  "requires": {
    "fabric": "*"
  },
  "plugin":"com.biom4st3r.moenchantments.Plugin",
  "mixins": [
    "curseofenderman/LivingEntityMixin",
    "familiarity/LivingEntityMixin",
    "potion_retention/ItemStackMixin",
    "potion_retention/LivingEntityMixin",
    "potion_retention/ThrownPotionEntityMixin",
    "soulbound/PlayerInventoryMxn",
    "soulbound/ServerPECopyFromMxn",
    "alphafire/BlockMixin",
    "veinmine/BlockMixin",
    "bowaccuracy/ProjectileEntityMxn",
    "bowaccuracy/BowItemMxn",
    "arrowchaos/BowItemMxn",
    "EnchantmentHelperMixin",
    "PlayerEntityMixin"
  ],
  "server":[
    "PostInitServer"
  ],
  "client": [
    "potion_retention/ItemStackClientMixin",
    "PostInitClient"
  ],
  "injectors": {
    "defaultRequire": 1
  }
}
