{
  "schemaVersion": 1,
  "id": "moenchantments",
  "version": "${version}",

  "name": "Mo'Enchantments",
  "description": "Adds new Enchantments",
  "authors": [
    "biom4st3r"
  ],
  "contact": {
    "homepage": "https://minecraft.curseforge.com/projects/fabric-more-enchantments",
    "sources": "https://gitlab.com/biom4st3r/moenchantments"
  },

  "license": "CC0-1.0",
  "icon": "assets/biom4st3r/icon.png",

  "environment": "*",
  "entrypoints": {
    "main": [
      "com.biom4st3r.moenchantments.ModInit"
    ],
    "client": [
    ]
  },
  "mixins": [
    "biom4st3r_moenchantments.json"
  ],

  "depends": {
    "fabricloader": ">=0.7.2"
  }
}
